{
	"country_id": 710,
	"n_training_periods": 4,
	"training_period_type": "week",
	"n_testing_periods": 1,
	"testing_period_type": "day",
	"n_window_periods": 2,
	"window_period_type": "week",
	"min_testing_datasets": 14
}